3_FullAdderEstructural/simulation/qsim/FullAdderEstructural.msim.vcd
$comment
	File created using the following command:
		vcd file FullAdderEstructural.msim.vcd -direction
$end
$date
	Wed Nov 27 22:05:31 2019
$end
$version
	ModelSim Version 10.5b
$end
$timescale
	1ps
$end

$scope module FullAdderEstructural_vlg_vec_tst $end
$var reg 1 ! A $end
$var reg 1 " B $end
$var reg 1 # Ci $end
$var wire 1 $ Co $end
$var wire 1 % S $end

$scope module i1 $end
$var wire 1 & gnd $end
$var wire 1 ' vcc $end
$var wire 1 ( unknown $end
$var tri1 1 ) devclrn $end
$var tri1 1 * devpor $end
$var tri1 1 + devoe $end
$var wire 1 , Co~output_o $end
$var wire 1 - S~output_o $end
$var wire 1 . B~input_o $end
$var wire 1 / A~input_o $end
$var wire 1 0 Ci~input_o $end
$var wire 1 1 Co~0_combout $end
$var wire 1 2 S~0_combout $end
$upscope $end
$upscope $end
$enddefinitions $end
#0
$dumpvars
0!
0"
0#
0$
0%
0&
1'
x(
1)
1*
1+
0,
0-
0.
0/
00
01
02
$end
#10000
1"
1.
12
1-
1%
#20000
1!
0"
1/
0.
#30000
1"
1.
02
11
1,
0-
0%
1$
#40000
1#
0!
0"
10
0/
0.
12
01
0,
1-
1%
0$
#50000
1"
1.
02
11
1,
0-
0%
1$
#60000
1!
0"
1/
0.
#70000
1"
1.
12
1-
1%
