1_MayoriaEstructural/simulation/qsim/MayoriaEstructural.msim.vcd
$comment
	File created using the following command:
		vcd file MayoriaEstructural.msim.vcd -direction
$end
$date
	Wed Nov 27 20:58:14 2019
$end
$version
	ModelSim Version 10.5b
$end
$timescale
	1ps
$end

$scope module mayoriaestructural_vhd_vec_tst $end
$var wire 1 ! B $end
$var wire 1 " C $end
$var wire 1 # J $end
$var wire 1 $ N $end

$scope module i1 $end
$var wire 1 % gnd $end
$var wire 1 & vcc $end
$var wire 1 ' unknown $end
$var wire 1 ( devoe $end
$var wire 1 ) devclrn $end
$var wire 1 * devpor $end
$var wire 1 + ww_devoe $end
$var wire 1 , ww_devclrn $end
$var wire 1 - ww_devpor $end
$var wire 1 . ww_J $end
$var wire 1 / ww_B $end
$var wire 1 0 ww_N $end
$var wire 1 1 ww_C $end
$var wire 1 2 \C~output_o\ $end
$var wire 1 3 \N~input_o\ $end
$var wire 1 4 \J~input_o\ $end
$var wire 1 5 \B~input_o\ $end
$var wire 1 6 \C~0_combout\ $end
$upscope $end
$upscope $end
$enddefinitions $end
#0
$dumpvars
0!
0"
0#
0$
0%
1&
x'
1(
1)
1*
1+
1,
1-
0.
0/
00
01
02
03
04
05
06
$end
#50000
1$
10
13
#100000
0$
1!
00
1/
15
03
#150000
1$
10
13
16
12
11
1"
#200000
0$
0!
1#
00
0/
1.
14
05
03
06
02
01
0"
#250000
1$
10
13
16
12
11
1"
#300000
0$
1!
00
1/
15
03
#350000
1$
10
13
