8_RegCarga/simulation/qsim/RegCarga.msim.vcd
$comment
	File created using the following command:
		vcd file RegCarga.msim.vcd -direction
$end
$date
	Thu Nov 28 21:20:06 2019
$end
$version
	ModelSim Version 10.5b
$end
$timescale
	1ps
$end

$scope module regcarga_vhd_vec_tst $end
$var wire 1 ! clk $end
$var wire 1 " dato [3] $end
$var wire 1 # dato [2] $end
$var wire 1 $ dato [1] $end
$var wire 1 % dato [0] $end
$var wire 1 & load $end
$var wire 1 ' salida [3] $end
$var wire 1 ( salida [2] $end
$var wire 1 ) salida [1] $end
$var wire 1 * salida [0] $end

$scope module i1 $end
$var wire 1 + gnd $end
$var wire 1 , vcc $end
$var wire 1 - unknown $end
$var wire 1 . devoe $end
$var wire 1 / devclrn $end
$var wire 1 0 devpor $end
$var wire 1 1 ww_devoe $end
$var wire 1 2 ww_devclrn $end
$var wire 1 3 ww_devpor $end
$var wire 1 4 ww_load $end
$var wire 1 5 ww_clk $end
$var wire 1 6 ww_dato [3] $end
$var wire 1 7 ww_dato [2] $end
$var wire 1 8 ww_dato [1] $end
$var wire 1 9 ww_dato [0] $end
$var wire 1 : ww_salida [3] $end
$var wire 1 ; ww_salida [2] $end
$var wire 1 < ww_salida [1] $end
$var wire 1 = ww_salida [0] $end
$var wire 1 > \clk~inputclkctrl_INCLK_bus\ [3] $end
$var wire 1 ? \clk~inputclkctrl_INCLK_bus\ [2] $end
$var wire 1 @ \clk~inputclkctrl_INCLK_bus\ [1] $end
$var wire 1 A \clk~inputclkctrl_INCLK_bus\ [0] $end
$var wire 1 B \salida[0]~output_o\ $end
$var wire 1 C \salida[1]~output_o\ $end
$var wire 1 D \salida[2]~output_o\ $end
$var wire 1 E \salida[3]~output_o\ $end
$var wire 1 F \clk~input_o\ $end
$var wire 1 G \clk~inputclkctrl_outclk\ $end
$var wire 1 H \dato[0]~input_o\ $end
$var wire 1 I \R[0]~feeder_combout\ $end
$var wire 1 J \load~input_o\ $end
$var wire 1 K \dato[1]~input_o\ $end
$var wire 1 L \dato[2]~input_o\ $end
$var wire 1 M \R[2]~feeder_combout\ $end
$var wire 1 N \dato[3]~input_o\ $end
$var wire 1 O \R[3]~feeder_combout\ $end
$var wire 1 P R [3] $end
$var wire 1 Q R [2] $end
$var wire 1 R R [1] $end
$var wire 1 S R [0] $end
$upscope $end
$upscope $end
$enddefinitions $end
#0
$dumpvars
0!
0&
0+
1,
x-
1.
1/
10
11
12
13
04
05
0B
0C
0D
0E
0F
0G
0H
0I
0J
0K
0L
0M
0N
0O
0"
0#
0$
0%
06
07
08
09
0:
0;
0<
0=
0P
0Q
0R
0S
1>
1?
1@
0A
0'
0(
0)
0*
$end
#5000
1!
15
1F
1A
1G
#10000
0!
1#
05
17
1L
0F
0A
1M
0G
#15000
1!
15
1F
1A
1G
#20000
0!
0#
1$
05
18
07
0L
1K
0F
0A
0M
0G
#25000
1!
15
1F
1A
1G
#30000
0!
1#
05
17
1L
0F
0A
1M
0G
#35000
1!
15
1F
1A
1G
#40000
0!
0#
0$
1&
1%
05
19
08
07
14
1J
0L
0K
1H
0F
0A
1I
0M
0G
#45000
1!
15
1F
1A
1G
1S
1B
1=
1*
#50000
0!
1#
05
17
1L
0F
0A
1M
0G
#55000
1!
15
1F
1A
1G
1Q
1D
1;
1(
#60000
0!
0#
1$
05
18
07
0L
1K
0F
0A
0M
0G
#65000
1!
15
1F
1A
1G
1R
0Q
0D
1C
0;
1<
1)
0(
#70000
0!
1#
05
17
1L
0F
0A
1M
0G
#75000
1!
15
1F
1A
1G
1Q
1D
1;
1(
#80000
0!
0#
0$
0%
05
09
08
07
0L
0K
0H
0F
0A
0I
0M
0G
#85000
1!
15
1F
1A
1G
0S
0R
0Q
0D
0C
0B
0;
0<
0=
0*
0)
0(
#90000
0!
0&
05
04
0J
0F
0A
0G
#95000
1!
15
1F
1A
1G
