7_MuxFuncional/simulation/qsim/MuxFuncional.msim.vcd
$comment
	File created using the following command:
		vcd file MuxFuncional.msim.vcd -direction
$end
$date
	Thu Nov 28 21:02:57 2019
$end
$version
	ModelSim Version 10.5b
$end
$timescale
	1ps
$end

$scope module muxfuncional_vhd_vec_tst $end
$var wire 1 ! A $end
$var wire 1 " B $end
$var wire 1 # C $end
$var wire 1 $ S $end

$scope module i1 $end
$var wire 1 % gnd $end
$var wire 1 & vcc $end
$var wire 1 ' unknown $end
$var wire 1 ( devoe $end
$var wire 1 ) devclrn $end
$var wire 1 * devpor $end
$var wire 1 + ww_devoe $end
$var wire 1 , ww_devclrn $end
$var wire 1 - ww_devpor $end
$var wire 1 . ww_S $end
$var wire 1 / ww_A $end
$var wire 1 0 ww_B $end
$var wire 1 1 ww_C $end
$var wire 1 2 \C~output_o\ $end
$var wire 1 3 \B~input_o\ $end
$var wire 1 4 \S~input_o\ $end
$var wire 1 5 \A~input_o\ $end
$var wire 1 6 \C~4_combout\ $end
$upscope $end
$upscope $end
$enddefinitions $end
#0
$dumpvars
0!
0"
0#
0$
0%
1&
x'
1(
1)
1*
1+
1,
1-
0.
0/
00
01
02
03
04
05
06
$end
#10000
1"
10
13
#20000
0"
1!
00
1/
15
03
16
12
11
1#
#30000
1"
10
13
#40000
0"
0!
1$
00
0/
1.
14
05
03
06
02
01
0#
#50000
1"
10
13
16
12
11
1#
#60000
0"
1!
00
1/
15
03
06
02
01
0#
#70000
1"
10
13
16
12
11
1#
